4-17 Basics of R
…
12.3 select

# 
select(diamonds,carat,price)
# A tibble: 53,940 x 2
   carat price
   <dbl> <int>
 1 0.23    326
 2 0.21    326
 3 0.23    327
 4 0.290   334
 5 0.31    335
 6 0.24    336
 7 0.24    336
 8 0.26    337
 9 0.22    337
10 0.23    338
# ... with 53,930 more rows

# 
diamonds %>% 
  select(carat,price)
# A tibble: 53,940 x 2
   carat price
   <dbl> <int>
 1 0.23    326
 2 0.21    326
 3 0.23    327
 4 0.290   334
 5 0.31    335
 6 0.24    336
 7 0.24    336
 8 0.26    337
 9 0.22    337
10 0.23    338
# ... with 53,930 more rows

# one_of()

diamonds %>% 
  select(one_of("carat","price"))
# A tibble: 53,940 x 2
   carat price
   <dbl> <int>
 1 0.23    326
 2 0.21    326
 3 0.23    327
 4 0.290   334
 5 0.31    335
 6 0.24    336
 7 0.24    336
 8 0.26    337
 9 0.22    337
10 0.23    338
# ... with 53,930 more rows

diamonds[,c('carat','price')] #
# A tibble: 53,940 x 2
   carat price
   <dbl> <int>
 1 0.23    326
 2 0.21    326
 3 0.23    327
 4 0.290   334
 5 0.31    335
 6 0.24    336
 7 0.24    336
 8 0.26    337
 9 0.22    337
10 0.23    338
# ... with 53,930 more rows

# starts_with,ends_with,contains
diamonds %>% 
  select(starts_with("c")) #c
# A tibble: 53,940 x 4
   carat cut       color clarity
   <dbl> <ord>     <ord> <ord>  
 1 0.23  Ideal     E     SI2    
 2 0.21  Premium   E     SI1    
 3 0.23  Good      E     VS1    
 4 0.290 Premium   I     VS2    
 5 0.31  Good      J     SI2    
 6 0.24  Very Good J     VVS2   
 7 0.24  Very Good I     VVS1   
 8 0.26  Very Good H     SI1    
 9 0.22  Fair      E     VS2    
10 0.23  Very Good H     VS1    
# ... with 53,930 more rows

diamonds %>% 
  select(ends_with("e")) #e
# A tibble: 53,940 x 2
   table price
   <dbl> <int>
 1    55   326
 2    61   326
 3    65   327
 4    58   334
 5    58   335
 6    57   336
 7    57   336
 8    55   337
 9    61   337
10    61   338
# ... with 53,930 more rows

diamonds %>% 
  select(contains("l")) #l
# A tibble: 53,940 x 3
   color clarity table
   <ord> <ord>   <dbl>
 1 E     SI2        55
 2 E     SI1        61
 3 E     VS1        65
 4 I     VS2        58
 5 J     SI2        58
 6 J     VVS2       57
 7 I     VVS1       57
 8 H     SI1        55
 9 E     VS2        61
10 H     VS1        61
# ... with 53,930 more rows

#  matches 
diamonds %>% 
  select(matches('r.+t')) # r.+t
# A tibble: 53,940 x 2
   carat clarity
   <dbl> <ord>  
 1 0.23  SI2    
 2 0.21  SI1    
 3 0.23  VS1    
 4 0.290 VS2    
 5 0.31  SI2    
 6 0.24  VVS2   
 7 0.24  VVS1   
 8 0.26  SI1    
 9 0.22  VS2    
10 0.23  VS1    
# ... with 53,930 more rows

# by name

diamonds %>% 
  select(-carat, -price) #caratprice
# A tibble: 53,940 x 8
   cut       color clarity depth table     x     y     z
   <ord>     <ord> <ord>   <dbl> <dbl> <dbl> <dbl> <dbl>
 1 Ideal     E     SI2      61.5    55  3.95  3.98  2.43
 2 Premium   E     SI1      59.8    61  3.89  3.84  2.31
 3 Good      E     VS1      56.9    65  4.05  4.07  2.31
 4 Premium   I     VS2      62.4    58  4.2   4.23  2.63
 5 Good      J     SI2      63.3    58  4.34  4.35  2.75
 6 Very Good J     VVS2     62.8    57  3.94  3.96  2.48
 7 Very Good I     VVS1     62.3    57  3.95  3.98  2.47
 8 Very Good H     SI1      61.9    55  4.07  4.11  2.53
 9 Fair      E     VS2      65.1    61  3.87  3.78  2.49
10 Very Good H     VS1      59.4    61  4     4.05  2.39
# ... with 53,930 more rows

#  
diamonds %>% 
  select(-c(carat,price))
# A tibble: 53,940 x 8
   cut       color clarity depth table     x     y     z
   <ord>     <ord> <ord>   <dbl> <dbl> <dbl> <dbl> <dbl>
 1 Ideal     E     SI2      61.5    55  3.95  3.98  2.43
 2 Premium   E     SI1      59.8    61  3.89  3.84  2.31
 3 Good      E     VS1      56.9    65  4.05  4.07  2.31
 4 Premium   I     VS2      62.4    58  4.2   4.23  2.63
 5 Good      J     SI2      63.3    58  4.34  4.35  2.75
 6 Very Good J     VVS2     62.8    57  3.94  3.96  2.48
 7 Very Good I     VVS1     62.3    57  3.95  3.98  2.47
 8 Very Good H     SI1      61.9    55  4.07  4.11  2.53
 9 Fair      E     VS2      65.1    61  3.87  3.78  2.49
10 Very Good H     VS1      59.4    61  4     4.05  2.39
# ... with 53,930 more rows

# by number
diamonds %>% 
  select(-1,-7)
# A tibble: 53,940 x 8
   cut       color clarity depth table     x     y     z
   <ord>     <ord> <ord>   <dbl> <dbl> <dbl> <dbl> <dbl>
 1 Ideal     E     SI2      61.5    55  3.95  3.98  2.43
 2 Premium   E     SI1      59.8    61  3.89  3.84  2.31
 3 Good      E     VS1      56.9    65  4.05  4.07  2.31
 4 Premium   I     VS2      62.4    58  4.2   4.23  2.63
 5 Good      J     SI2      63.3    58  4.34  4.35  2.75
 6 Very Good J     VVS2     62.8    57  3.94  3.96  2.48
 7 Very Good I     VVS1     62.3    57  3.95  3.98  2.47
 8 Very Good H     SI1      61.9    55  4.07  4.11  2.53
 9 Fair      E     VS2      65.1    61  3.87  3.78  2.49
10 Very Good H     VS1      59.4    61  4     4.05  2.39
# ... with 53,930 more rows

diamonds %>% 
  select(-c(1,7))
# A tibble: 53,940 x 8
   cut       color clarity depth table     x     y     z
   <ord>     <ord> <ord>   <dbl> <dbl> <dbl> <dbl> <dbl>
 1 Ideal     E     SI2      61.5    55  3.95  3.98  2.43
 2 Premium   E     SI1      59.8    61  3.89  3.84  2.31
 3 Good      E     VS1      56.9    65  4.05  4.07  2.31
 4 Premium   I     VS2      62.4    58  4.2   4.23  2.63
 5 Good      J     SI2      63.3    58  4.34  4.35  2.75
 6 Very Good J     VVS2     62.8    57  3.94  3.96  2.48
 7 Very Good I     VVS1     62.3    57  3.95  3.98  2.47
 8 Very Good H     SI1      61.9    55  4.07  4.11  2.53
 9 Fair      E     VS2      65.1    61  3.87  3.78  2.49
10 Very Good H     VS1      59.4    61  4     4.05  2.39
# ... with 53,930 more rows

12.4 filter

diamonds %>% 
  filter(cut=="Ideal")
# A tibble: 21,551 x 10
   carat cut   color clarity depth table price     x     y     z
   <dbl> <ord> <ord> <ord>   <dbl> <dbl> <int> <dbl> <dbl> <dbl>
 1  0.23 Ideal E     SI2      61.5    55   326  3.95  3.98  2.43
 2  0.23 Ideal J     VS1      62.8    56   340  3.93  3.9   2.46
 3  0.31 Ideal J     SI2      62.2    54   344  4.35  4.37  2.71
 4  0.3  Ideal I     SI2      62      54   348  4.31  4.34  2.68
 5  0.33 Ideal I     SI2      61.8    55   403  4.49  4.51  2.78
 6  0.33 Ideal I     SI2      61.2    56   403  4.49  4.5   2.75
 7  0.33 Ideal J     SI1      61.1    56   403  4.49  4.55  2.76
 8  0.23 Ideal G     VS1      61.9    54   404  3.93  3.95  2.44
 9  0.32 Ideal I     SI1      60.9    55   404  4.45  4.48  2.72
10  0.3  Ideal I     SI2      61      59   405  4.3   4.33  2.63
# ... with 21,541 more rows

diamonds %>% 
  filter(cut %in% c("Ideal","Good"))
# A tibble: 26,457 x 10
   carat cut   color clarity depth table price     x     y     z
   <dbl> <ord> <ord> <ord>   <dbl> <dbl> <int> <dbl> <dbl> <dbl>
 1  0.23 Ideal E     SI2      61.5    55   326  3.95  3.98  2.43
 2  0.23 Good  E     VS1      56.9    65   327  4.05  4.07  2.31
 3  0.31 Good  J     SI2      63.3    58   335  4.34  4.35  2.75
 4  0.3  Good  J     SI1      64      55   339  4.25  4.28  2.73
 5  0.23 Ideal J     VS1      62.8    56   340  3.93  3.9   2.46
 6  0.31 Ideal J     SI2      62.2    54   344  4.35  4.37  2.71
 7  0.3  Ideal I     SI2      62      54   348  4.31  4.34  2.68
 8  0.3  Good  J     SI1      63.4    54   351  4.23  4.29  2.7 
 9  0.3  Good  J     SI1      63.8    56   351  4.23  4.26  2.71
10  0.3  Good  I     SI2      63.3    56   351  4.26  4.3   2.71
# ... with 26,447 more rows

diamonds %>% 
  filter(price>=1000)
# A tibble: 39,441 x 10
   carat cut       color clarity depth table price     x     y     z
   <dbl> <ord>     <ord> <ord>   <dbl> <dbl> <int> <dbl> <dbl> <dbl>
 1  0.7  Ideal     E     SI1      62.5    57  2757  5.7   5.72  3.57
 2  0.86 Fair      E     SI2      55.1    69  2757  6.45  6.33  3.52
 3  0.7  Ideal     G     VS2      61.6    56  2757  5.7   5.67  3.5 
 4  0.71 Very Good E     VS2      62.4    57  2759  5.68  5.73  3.56
 5  0.78 Very Good G     SI2      63.8    56  2759  5.81  5.85  3.72
 6  0.7  Good      E     VS2      57.5    58  2759  5.85  5.9   3.38
 7  0.7  Good      F     VS1      59.4    62  2759  5.71  5.76  3.4 
 8  0.96 Fair      F     SI2      66.3    62  2759  6.27  5.95  4.07
 9  0.73 Very Good E     SI1      61.6    59  2760  5.77  5.78  3.56
10  0.8  Premium   H     SI1      61.5    58  2760  5.97  5.93  3.66
# ... with 39,431 more rows

diamonds %>% 
  filter(carat>2&price<14000)
# A tibble: 644 x 10
   carat cut     color clarity depth table price     x     y     z
   <dbl> <ord>   <ord> <ord>   <dbl> <dbl> <int> <dbl> <dbl> <dbl>
 1  2.06 Premium J     I1       61.2    58  5203  8.1   8.07  4.95
 2  2.14 Fair    J     I1       69.4    57  5405  7.74  7.7   5.36
 3  2.15 Fair    J     I1       65.5    57  5430  8.01  7.95  5.23
 4  2.22 Fair    J     I1       66.7    56  5607  8.04  8.02  5.36
 5  2.01 Fair    I     I1       67.4    58  5696  7.71  7.64  5.17
 6  2.01 Fair    I     I1       55.9    64  5696  8.48  8.39  4.71
 7  2.27 Fair    J     I1       67.6    55  5733  8.05  8     5.43
 8  2.03 Fair    H     I1       64.4    59  6002  7.91  7.85  5.07
 9  2.03 Fair    H     I1       66.6    57  6002  7.81  7.75  5.19
10  2.06 Good    H     I1       64.3    58  6091  8.03  7.99  5.15
# ... with 634 more rows

diamonds %>% 
  filter(carat<1|carat>5)
# A tibble: 34,881 x 10
   carat cut       color clarity depth table price     x     y     z
   <dbl> <ord>     <ord> <ord>   <dbl> <dbl> <int> <dbl> <dbl> <dbl>
 1 0.23  Ideal     E     SI2      61.5    55   326  3.95  3.98  2.43
 2 0.21  Premium   E     SI1      59.8    61   326  3.89  3.84  2.31
 3 0.23  Good      E     VS1      56.9    65   327  4.05  4.07  2.31
 4 0.290 Premium   I     VS2      62.4    58   334  4.2   4.23  2.63
 5 0.31  Good      J     SI2      63.3    58   335  4.34  4.35  2.75
 6 0.24  Very Good J     VVS2     62.8    57   336  3.94  3.96  2.48
 7 0.24  Very Good I     VVS1     62.3    57   336  3.95  3.98  2.47
 8 0.26  Very Good H     SI1      61.9    55   337  4.07  4.11  2.53
 9 0.22  Fair      E     VS2      65.1    61   337  3.87  3.78  2.49
10 0.23  Very Good H     VS1      59.4    61   338  4     4.05  2.39
# ... with 34,871 more rows
…
diamonds %>% 
  slice(-1) #1
# A tibble: 53,939 x 10
   carat cut       color clarity depth table price     x     y     z
   <dbl> <ord>     <ord> <ord>   <dbl> <dbl> <int> <dbl> <dbl> <dbl>
 1 0.21  Premium   E     SI1      59.8    61   326  3.89  3.84  2.31
 2 0.23  Good      E     VS1      56.9    65   327  4.05  4.07  2.31
 3 0.290 Premium   I     VS2      62.4    58   334  4.2   4.23  2.63
 4 0.31  Good      J     SI2      63.3    58   335  4.34  4.35  2.75
 5 0.24  Very Good J     VVS2     62.8    57   336  3.94  3.96  2.48
 6 0.24  Very Good I     VVS1     62.3    57   336  3.95  3.98  2.47
 7 0.26  Very Good H     SI1      61.9    55   337  4.07  4.11  2.53
 8 0.22  Fair      E     VS2      65.1    61   337  3.87  3.78  2.49
 9 0.23  Very Good H     VS1      59.4    61   338  4     4.05  2.39
10 0.3   Good      J     SI1      64      55   339  4.25  4.28  2.73
# ... with 53,929 more rows

12.6 mutate

diamonds %>% 
  select(carat,price) %>% 
  mutate(Ratio=price/carat,Double=Ratio*2)
# A tibble: 53,940 x 4
   carat price Ratio Double
   <dbl> <int> <dbl>  <dbl>
 1 0.23    326 1417.  2835.
 2 0.21    326 1552.  3105.
 3 0.23    327 1422.  2843.
 4 0.290   334 1152.  2303.
 5 0.31    335 1081.  2161.
 6 0.24    336 1400   2800 
 7 0.24    336 1400   2800 
 8 0.26    337 1296.  2592.
 9 0.22    337 1532.  3064.
10 0.23    338 1470.  2939.
# ... with 53,930 more rows

%<>% 

library(magrittr)
diamonds2 <- diamonds
diamonds2
# A tibble: 53,940 x 10
   carat cut       color clarity depth table price     x     y     z
   <dbl> <ord>     <ord> <ord>   <dbl> <dbl> <int> <dbl> <dbl> <dbl>
 1 0.23  Ideal     E     SI2      61.5    55   326  3.95  3.98  2.43
 2 0.21  Premium   E     SI1      59.8    61   326  3.89  3.84  2.31
 3 0.23  Good      E     VS1      56.9    65   327  4.05  4.07  2.31
 4 0.290 Premium   I     VS2      62.4    58   334  4.2   4.23  2.63
 5 0.31  Good      J     SI2      63.3    58   335  4.34  4.35  2.75
 6 0.24  Very Good J     VVS2     62.8    57   336  3.94  3.96  2.48
 7 0.24  Very Good I     VVS1     62.3    57   336  3.95  3.98  2.47
 8 0.26  Very Good H     SI1      61.9    55   337  4.07  4.11  2.53
 9 0.22  Fair      E     VS2      65.1    61   337  3.87  3.78  2.49
10 0.23  Very Good H     VS1      59.4    61   338  4     4.05  2.39
# ... with 53,930 more rows
…
data("diamonds")
unique(diamonds$color)
[1] E I J H F G D
Levels: D < E < F < G < H < I < J

library(dplyr)
left_join(diamonds,diamondColors,by=c("color"="Color"))
# A tibble: 53,940 x 12
   carat cut   color clarity depth table price     x     y     z Description
   <dbl> <ord> <chr> <ord>   <dbl> <dbl> <int> <dbl> <dbl> <dbl> <chr>      
 1 0.23  Ideal E     SI2      61.5    55   326  3.95  3.98  2.43 Colorless  
 2 0.21  Prem~ E     SI1      59.8    61   326  3.89  3.84  2.31 Colorless  
 3 0.23  Good  E     VS1      56.9    65   327  4.05  4.07  2.31 Colorless  
 4 0.290 Prem~ I     VS2      62.4    58   334  4.2   4.23  2.63 Near Color~
 5 0.31  Good  J     SI2      63.3    58   335  4.34  4.35  2.75 Near Color~
 6 0.24  Very~ J     VVS2     62.8    57   336  3.94  3.96  2.48 Near Color~
 7 0.24  Very~ I     VVS1     62.3    57   336  3.95  3.98  2.47 Near Color~
 8 0.26  Very~ H     SI1      61.9    55   337  4.07  4.11  2.53 Near Color~
 9 0.22  Fair  E     VS2      65.1    61   337  3.87  3.78  2.49 Colorless  
10 0.23  Very~ H     VS1      59.4    61   338  4     4.05  2.39 Near Color~
# ... with 53,930 more rows, and 1 more variable: Details <chr>

left_join(diamonds,diamondColors,by=c("color"="Color")) %>% 
  select(carat,color,price,Description,Details)
# A tibble: 53,940 x 5
   carat color price Description    Details                    
   <dbl> <chr> <int> <chr>          <chr>                      
 1 0.23  E       326 Colorless      Minute traces of color     
 2 0.21  E       326 Colorless      Minute traces of color     
 3 0.23  E       327 Colorless      Minute traces of color     
 4 0.290 I       334 Near Colorless Slightly detectable color  
 5 0.31  J       335 Near Colorless Slightly detectable color  
 6 0.24  J       336 Near Colorless Slightly detectable color  
 7 0.24  I       336 Near Colorless Slightly detectable color  
 8 0.26  H       337 Near Colorless Color is dificult to detect
 9 0.22  E       337 Colorless      Minute traces of color     
10 0.23  H       338 Near Colorless Color is dificult to detect
# ... with 53,930 more rows
…
